Car Collion within Montgomery County - 2 Data
…
2.4 Analyzing NAs

Let’s analyze the NAs in the different columns - how many NAs we have in each one of the columns?

Code

## PLot the number of NAs for each column

b <- apply(data_crash, 2, function(c) sum(is.na(c)))
tibble_nas <- tibble(column_name = names(b), number_of_NA = b)
tibble_nas |> arrange(desc(number_of_NA))

# A tibble: 44 × 2
   column_name                  number_of_NA
   <chr>                               <int>
 1 Non_Motorist_Substance_Abuse        91406
 2 Related_Non_Motorist                90311
 3 Lane_Type                           86261
 4 Municipality                        85404
 5 Off_Road_Description                83479
 6 Fixed_Oject_Struck                  75409
 7 Second_Harmful_Event                71550
 8 Intersection_Area                   69682
 9 Intersection_Type                   48164
10 Junction                            25588
# ℹ 34 more rows
…
