Car Collion within Montgomery County - 3 Results
…
Code

#Separate time and Date

dt_temporal$"Crash_Date_Time" <- as.POSIXct(dt_temporal$"Crash_Date_Time", format = "%m/%d/%Y %I:%M:%S %p", tz = "America/New_York")

dt_temporal$Crash_Date <- as.Date(dt_temporal$"Crash_Date_Time", tz = "America/New_York")

#I have a problem with the hours it doesn't show up well
dt_temporal$Crash_Time <- format(dt_temporal$"Crash_Date_Time", "%H:%M:%S")
dt_temporal

# A tibble: 95,584 × 7
   Crash_Date_Time     Weather Hit_Run First_Harmful_Event At_Fault Crash_Date
   <dttm>              <chr>   <chr>   <chr>               <chr>    <date>    
 1 2023-06-30 22:55:00 CLEAR   No      FIXED OBJECT        DRIVER   2023-06-30
 2 2023-06-30 20:00:00 CLEAR   No      OTHER VEHICLE       DRIVER   2023-06-30
 3 2023-06-29 11:53:00 CLEAR   No      FIXED OBJECT        DRIVER   2023-06-29
 4 2023-07-01 01:48:00 CLOUDY  Yes     PARKED VEHICLE      UNKNOWN  2023-07-01
 5 2023-07-01 12:52:00 CLEAR   No      PARKED VEHICLE      DRIVER   2023-07-01
 6 2023-06-30 12:00:00 CLEAR   No      OTHER VEHICLE       DRIVER   2023-06-30
 7 2023-06-30 18:00:00 CLEAR   Yes     PARKED VEHICLE      DRIVER   2023-06-30
 8 2023-06-29 13:03:00 CLEAR   No      FIXED OBJECT        DRIVER   2023-06-29
 9 2023-06-26 16:26:00 CLEAR   No      OTHER VEHICLE       DRIVER   2023-06-26
10 2023-06-29 12:59:00 CLEAR   No      OFF ROAD            DRIVER   2023-06-29
# ℹ 95,574 more rows
# ℹ 1 more variable: Crash_Time <chr>
…
d => ({
        Month: parseInt(d.Month),
        crash_day_no_year: parseInt(d.crash_day_no_year),
        total_crash: parse
    })

Code

c

# A tibble: 366 × 4
# Groups:   Month [12]
   Month   crash_day_no_year total_crash day_only
   <fct>   <chr>                   <dbl> <fct>   
 1 January 01-01                    19.7 01      
 2 January 01-02                    25.3 02      
 3 January 01-03                    30   03      
 4 January 01-04                    29.9 04      
 5 January 01-05                    27   05      
 6 January 01-06                    30.4 06      
 7 January 01-07                    29.1 07      
 8 January 01-08                    33   08      
 9 January 01-09                    31.1 09      
10 January 01-10                    27.7 10      
# ℹ 356 more rows
…
3.5 Things we found from graphs we created”

We checked and there doesn’t seem to be a correlation between the Weather and the Hit_Run

Code

dt_temporal_week

# A tibble: 464 × 16
# Groups:   Crash_week [464]
   Crash_Date_Time     Weather   Hit_Run First_Harmful_Event At_Fault Crash_Date
   <dttm>              <chr>     <chr>   <chr>               <chr>    <date>    
 1 2015-01-01 19:52:00 CLEAR     Yes     PARKED VEHICLE      DRIVER   2015-01-01
 2 2015-01-04 07:19:00 FOGGY     Yes     OTHER VEHICLE       DRIVER   2015-01-04
 3 2015-01-11 14:57:00 CLEAR     No      OTHER VEHICLE       DRIVER   2015-01-11
 4 2015-01-18 19:24:00 RAINING   No      OFF ROAD            DRIVER   2015-01-18
 5 2015-01-25 03:15:00 <NA>      No      PARKED VEHICLE      DRIVER   2015-01-25
 6 2015-02-01 11:28:00 CLEAR     No      OTHER VEHICLE       DRIVER   2015-02-01
 7 2015-02-08 14:20:00 CLEAR     No      OTHER VEHICLE       DRIVER   2015-02-08
 8 2015-02-15 02:45:00 SEVERE W… Yes     OTHER VEHICLE       DRIVER   2015-02-15
 9 2015-02-22 19:43:00 CLEAR     No      OTHER VEHICLE       DRIVER   2015-02-22
10 2015-03-01 12:15:00 WINTRY M… No      OTHER VEHICLE       DRIVER   2015-03-01
# ℹ 454 more rows
# ℹ 10 more variables: Crash_Time <time>, Week_day <fct>, Month <fct>,
#   Year <dbl>, first_day_of_month <date>, Crash_Hour <int>, Crash_week <date>,
#   Count_week <int>, Crash_month <dbl>, is_holiday <chr>
…
